Central Limit Theorem, Samping, Standard Error
…
Sampling from a Population

Automated Example

Take 100 random samples of size 5

print(n5)

## # A tibble: 100 x 1
##       avg
##     <dbl>
##  1 26200 
##  2 51400 
##  3 44400 
##  4 33200 
##  5 23600.
##  6 50600 
##  7 34400 
##  8 80775 
##  9 61400 
## 10 64600 
## #  with 90 more rows
…
Sampling from a Population

Automated Example

Take 100 random samples of size 10

print(n10)

## # A tibble: 100 x 1
##       avg
##     <dbl>
##  1 76855.
##  2 26300 
##  3 32100 
##  4 26800 
##  5 42400 
##  6 77012.
##  7 39900.
##  8 32900.
##  9 51400 
## 10 42400 
## #  with 90 more rows
…
#100 times
100 %>%
  #rerun the next command; sample_n takes random samples
  #na.omit deletes missing values, 5 is the size of the sample
  rerun(sample_n(na.omit(df), 100)) %>%
  #calculate the average of each sample
  map_df(~summarize(., avg=mean(Wages))) ->n100

Sampling from a Population

Take 100 random samples of size 100

print(n100)

## # A tibble: 100 x 1
##       avg
##     <dbl>
##  1 43670.
##  2 44258.
##  3 49290.
##  4 46394.
##  5 51152.
##  6 49340.
##  7 47072.
##  8 44286.
##  9 44916.
## 10 60226.
## #  with 90 more rows
…
#100 times
100 %>%
  #rerun the next command; sample_n takes random samples
  #na.omit deletes missing values, 5 is the size of the sample
  rerun(sample_n(na.omit(df), 500)) %>%
  #calculate the average of each sample
  map_df(~summarize(., avg=mean(Wages))) ->n500
#print the results

Sampling from a Population

print(n500)

## # A tibble: 100 x 1
##       avg
##     <dbl>
##  1 46586.
##  2 47208.
##  3 45774.
##  4 51565.
##  5 39767.
##  6 47608.
##  7 48842.
##  8 47029.
##  9 44125.
## 10 48819.
## #  with 90 more rows
…
